dump.vcd
$date
Tue Aug 22 07:29:17 2023
$end
$version
Riviera-PRO Version 2022.04.117.8517
$end
$timescale
1 ns
$end

$scope module async_fifo_TB $end
$var wire 8 ! data_out [7:0] $end
$var wire 1 " full $end
$var wire 1 # empty $end
$var reg 8 $ data_in [7:0] $end
$var reg 1 % w_en $end
$var reg 1 & wclk $end
$var reg 1 ' wrst_n $end
$var reg 1 ( r_en $end
$var reg 1 ) rclk $end
$var reg 1 * rrst_n $end
$var reg 8 + wdata [7:0] $end
$var parameter 32 , DATA_WIDTH [31:0] $end

$scope module as_fifo $end
$var wire 1 - wclk $end
$var wire 1 . wrst_n $end
$var wire 1 / rclk $end
$var wire 1 0 rrst_n $end
$var wire 1 1 w_en $end
$var wire 1 2 r_en $end
$var wire 8 3 data_in [7:0] $end
$var wire 3 4 waddr [2:0] $end
$var wire 3 4 raddr [2:0] $end
$var reg 8 5 data_out [7:0] $end
$var reg 1 6 full $end
$var reg 1 7 empty $end
$var reg 4 8 g_wptr_sync [3:0] $end
$var reg 4 9 g_rptr_sync [3:0] $end
$var reg 4 : b_wptr [3:0] $end
$var reg 4 ; b_rptr [3:0] $end
$var reg 4 < g_wptr [3:0] $end
$var reg 4 = g_rptr [3:0] $end
$var parameter 32 > DEPTH [31:0] $end
$var parameter 32 ? DATA_WIDTH [31:0] $end
$var parameter 32 @ PTR_WIDTH [31:0] $end

$scope module sync_wptr $end
$var wire 1 A clk $end
$var wire 1 B rst_n $end
$var wire 4 C d_in [3:0] $end
$var reg 4 D d_out [3:0] $end
$var reg 4 E q1 [3:0] $end
$var parameter 32 F WIDTH [31:0] $end
$upscope $end


$scope module sync_rptr $end
$var wire 1 G clk $end
$var wire 1 H rst_n $end
$var wire 4 I d_in [3:0] $end
$var reg 4 J d_out [3:0] $end
$var reg 4 K q1 [3:0] $end
$var parameter 32 L WIDTH [31:0] $end
$upscope $end


$scope module wptr_h $end
$var wire 1 M wclk $end
$var wire 1 N wrst_n $end
$var wire 1 O w_en $end
$var wire 4 P g_rptr_sync [3:0] $end
$var wire 1 Q wfull $end
$var reg 4 R b_wptr [3:0] $end
$var reg 4 S g_wptr [3:0] $end
$var reg 1 T full $end
$var reg 4 U b_wptr_next [3:0] $end
$var reg 4 V g_wptr_next [3:0] $end
$var reg 1 W wrap_around $end
$var parameter 32 X PTR_WIDTH [31:0] $end
$upscope $end


$scope module rptr_h $end
$var wire 1 Y rclk $end
$var wire 1 Z rrst_n $end
$var wire 1 [ r_en $end
$var wire 4 \ g_wptr_sync [3:0] $end
$var wire 1 ] rempty $end
$var reg 4 ^ b_rptr [3:0] $end
$var reg 4 _ g_rptr [3:0] $end
$var reg 1 ` empty $end
$var reg 4 a b_rptr_next [3:0] $end
$var reg 4 b g_rptr_next [3:0] $end
$var parameter 32 c PTR_WIDTH [31:0] $end
$upscope $end


$scope module fifom $end
$var wire 1 d wclk $end
$var wire 1 e w_en $end
$var wire 1 f rclk $end
$var wire 1 g r_en $end
$var wire 4 h b_wptr [3:0] $end
$var wire 4 i b_rptr [3:0] $end
$var wire 8 j data_in [7:0] $end
$var wire 1 " full $end
$var wire 1 # empty $end
$var reg 8 k data_out [7:0] $end
$var parameter 32 l DEPTH [31:0] $end
$var parameter 32 m DATA_WIDTH [31:0] $end
$var parameter 32 n PTR_WIDTH [31:0] $end
$upscope $end

$upscope $end

$upscope $end

$enddefinitions $end
$dumpvars
bx !
0"
1#
b0 $
0%
0&
0'
0(
0)
0*
bx +
b1000 ,
0-
0.
0/
00
01
02
b0 3
bz 4
bx 5
06
17
bx 8
bx 9
b0 :
b0 ;
b0 <
b0 =
b1000 >
b1000 ?
b11 @
0A
0B
b0 C
bx D
bx E
b11 F
0G
0H
b0 I
bx J
bx K
b11 L
0M
0N
0O
bx P
xQ
b0 R
b0 S
0T
b0 U
b0 V
xW
b11 X
0Y
0Z
0[
bx \
x]
b0 ^
b0 _
1`
b0 a
b0 b
b11 c
0d
0e
0f
0g
b0 h
b0 i
b0 j
0"
1#
bx k
b1000 l
b1000 m
b11 n
$end
#10
1&
1-
1M
1d
1G
b0 K
b0 J
b0 9
b0 P
0Q
#20
0&
0-
0M
0d
0G
#30
1&
1-
1M
1d
1G
#35
1)
1/
1Y
1f
1A
b0 E
b0 D
b0 8
b0 \
1]
#40
0&
0-
0M
0d
0G
#50
1&
1-
1M
1d
1G
#60
0&
0-
0M
0d
0G
#70
0)
1&
1-
1M
1d
1G
0/
0Y
0f
0A
#80
0&
0-
0M
0d
0G
#90
1&
1-
1M
1d
1G
#100
0&
0-
0M
0d
0G
#105
1)
1/
1Y
1f
1A
#110
1&
1-
1M
1d
1G
#120
0&
0-
0M
0d
0G
#130
1&
1-
1M
1d
1G
#140
0)
0&
0-
0M
0d
0G
0/
0Y
0f
0A
#150
1&
1-
1M
1d
1G
#160
0&
0-
0M
0d
0G
#170
1&
1-
1M
1d
1G
#175
1)
1/
1Y
1f
1A
#180
0&
0-
0M
0d
0G
#190
1&
1-
1M
1d
1G
1'
1.
1N
1H
#200
0&
0-
0M
0d
0G
#210
0)
1&
1-
1M
1d
1G
0/
0Y
0f
0A
1%
b11101111 $
b11101111 3
b11101111 j
11
1O
1e
b1 U
b1 V
#220
0&
0-
0M
0d
0G
#230
1&
1-
1M
1d
1G
0%
01
0O
0e
b0 U
b0 V
b1 R
b1 S
b1 :
b1 U
b1 <
b11101111 k
b1 V
b11101111 5
b11101111 !
b1 C
b1 h
#240
0&
0-
0M
0d
0G
#245
1)
1/
1Y
1f
1A
#250
1&
1-
1M
1d
1G
1%
b11010110 $
b11010110 3
b11010110 j
11
1O
1e
b10 U
b11 V
#260
0&
0-
0M
0d
0G
#270
1&
1-
1M
1d
1G
0%
01
0O
0e
b1 U
b1 V
b10 R
b11 S
b10 :
b10 U
b11 <
b11 V
b11 C
b10 h
#280
0)
0&
0-
0M
0d
0G
0/
0Y
0f
0A
#290
1&
1-
1M
1d
1G
1%
b10100 $
b10100 3
b10100 j
11
1O
1e
b11 U
b10 V
#300
0&
0-
0M
0d
0G
#310
1&
1-
1M
1d
1G
0%
01
0O
0e
b10 U
b11 V
b11 R
b10 S
b11 :
b11 U
b10 <
b10 V
b10 C
b11 h
#315
1)
1/
1Y
1f
1A
#320
0&
0-
0M
0d
0G
#330
1&
1-
1M
1d
1G
1%
b1011000 $
b1011000 3
b1011000 j
11
1O
1e
b100 U
b110 V
#340
0&
0-
0M
0d
0G
#350
0)
1&
1-
1M
1d
1G
0/
0Y
0f
0A
0%
01
0O
0e
b11 U
b10 V
b100 R
b110 S
b100 :
b100 U
b110 <
b110 V
b110 C
b100 h
#360
0&
0-
0M
0d
0G
#370
1&
1-
1M
1d
1G
1%
b10011101 $
b10011101 3
b10011101 j
11
1O
1e
b101 U
b111 V
#380
0&
0-
0M
0d
0G
#385
1)
1/
1Y
1f
1A
#390
1&
1-
1M
1d
1G
0%
01
0O
0e
b100 U
b110 V
b101 R
b111 S
b101 :
b101 U
b111 <
b111 V
b111 C
b101 h
#400
0&
0-
0M
0d
0G
#410
1&
1-
1M
1d
1G
1%
b1110011 $
b1110011 3
b1110011 j
11
1O
1e
b110 U
b101 V
#420
0)
0&
0-
0M
0d
0G
0/
0Y
0f
0A
#430
1&
1-
1M
1d
1G
0%
01
0O
0e
b101 U
b111 V
b110 R
b101 S
b110 :
b110 U
b101 <
b101 V
b101 C
b110 h
#440
0&
0-
0M
0d
0G
#450
1&
1-
1M
1d
1G
1%
b1100000 $
b1100000 3
b1100000 j
11
1O
1e
b111 U
b100 V
#455
1)
1/
1Y
1f
1A
#460
0&
0-
0M
0d
0G
#470
1&
1-
1M
1d
1G
0%
01
0O
0e
b110 U
b101 V
b111 R
b100 S
b111 :
b111 U
b100 <
b100 V
b100 C
b111 h
#480
0&
0-
0M
0d
0G
#490
0)
1&
1-
1M
1d
1G
0/
0Y
0f
0A
1%
b1001001 $
b1001001 3
b1001001 j
11
1O
1e
b1000 U
b1100 V
1Q
#500
0&
0-
0M
0d
0G
#510
1&
1-
1M
1d
1G
0%
01
0O
0e
b111 U
b100 V
0Q
b1000 R
b1100 S
1T
b1000 :
b1000 U
b1100 <
16
b1100 V
1Q
1"
1"
b1100 C
b1000 h
